description=Default
levelfile(map01.map,Simple)
levelfile(map02.map,Snail)
levelfile(map03.map,"Spiky travel")
levelfile(map04.map,"Double trouble")
levelfile(map05.map,"Wall breaking")
levelfile(Remote.map,"Remote control")
levelfile(QuickSwap.map,"Quick swap")
levelfile(Sweeper.map,Sweeper)
levelfile(Towers.map,Towers)
levelfile(Timing.map,Timing)
levelfile(Skyscrapers.map,Skyscrapers)
levelfile(Switches.map,Switches)
levelfile(Regroup.map,Regroup)
levelfile(Volcano.map,Volcano)
